trabalho2_pss\Presenter\MenuPrincipalState.class
trabalho2_pss\Util\Validadores\DoubleValidador.class
trabalho2_pss\Util\Validadores\IntegerValidador.class
trabalho2_pss\Util\Validadores\ValorVazioValidador.class
trabalho2_pss\Util\SaqueValidador.class
trabalho2_pss\View\MenuPrincipalView.class
trabalho2_pss\Presenter\EmManutencaoState.class
trabalho2_pss\Util\Validadores\IValidador.class
trabalho2_pss\Util\BuscaPorIdValidador.class
trabalho2_pss\View\MenuPrincipalView$2.class
trabalho2_pss\Main.class
trabalho2_pss\Presenter\MenuPrincipalPresenter.class
trabalho2_pss\Util\Validadores\DataValidador.class
trabalho2_pss\Util\Validadores\ValorPositivoValidador.class
trabalho2_pss\View\MenuPrincipalView$1.class
trabalho2_pss\Presenter\FuncionandoState.class
trabalho2_pss\Model\PapelMoeda.class
trabalho2_pss\Util\Validadores\AbstractValidador.class
trabalho2_pss\Service\MenuPrincipalService.class
trabalho2_pss\View\MenuPrincipalView$3.class
trabalho2_pss\Util\BuscaPorDataValidador.class
.netbeans_automatic_build
trabalho2_pss\Model\Saque.class
